{
	"properties":
	[
		{
			"numLevel" : 4,
			"type" : 1,
			"score" : 100,
			"animated" : 1,
			"speed" : [0,-270,0],
			"scale" : 1,			
			"relativeDistance" : [0,0,0],
			"Tempo" : 2.5,	
			"lifes" : 2,
			"SliceDirection" : 10,		
			"baseModel" : "Models//Ch_oni.model",
			"topSide" : "",
			"bottomSide" : "",
			"leftSide" : "",
			"rightSide" : "",
			"upRightSide" : "Models//Ch_oni_upright.model",
			"upLeftSide" : "Models//Ch_oni_upleft.model",
			"downLeftSide" : "Models//Ch_oni_downleft.model",
			"downRightSide" : "Models//Ch_oni_downright.model"
		}
	]
}