{
	"properties":
	[
		{
			"numLevel" : 8,
			"type" : 5,
			"score" : -1000,
			"animated" : 1,
			"speed" : [0,-450,0],
			"scale" : 1,			
			"relativeDistance" : [0,1200,0],
			"lifes" : 1,
			"SliceDirection" : 0,
			"Tempo" : 0,			
			"baseModel" : "Models//Ch_civil.model",
			"topSide" : "Models//Ch_civil_up.model",
			"bottomSide" : "Models//Ch_civil_down.model",
			"leftSide" : "Models//Ch_civil_left.model",
			"rightSide" : "Models//Ch_civil_right.model",
			"upRightSide" : "Models//Ch_civil_upright.model",
			"upLeftSide" : "Models//Ch_civil_upleft.model",
			"downLeftSide" : "Models//Ch_civil_downleft.model",
			"downRightSide" : "Models//Ch_civil_downright.model"
		}
	]
}