{
	"properties":
	[
		{
			"numLevel" : 14,
			"type" : 6,
			"score" : 500,
			"animated" : 1,
			"speed" : [0,-450,0],
			"scale" : 1,			
			"relativeDistance" : [0,1700,0],
			"lifes" : 1,
			"SliceDirection" : 0,
			"Tempo" : 1.9,
			"Cooldown" : 0,
			"baseModel" : "Models//Ch_yurei.model",
			"topSide" : "Models//Ch_yurei_up.model",
			"bottomSide" : "Models//Ch_yurei_down.model",
			"leftSide" : "Models//Ch_yurei_left.model",
			"rightSide" : "Models//Ch_yurei_right.model",
			"upRightSide" : "Models//Ch_yurei_upright.model",
			"upLeftSide" : "Models//Ch_yurei_upleft.model",
			"downLeftSide" : "Models//Ch_yurei_downleft.model",
			"downRightSide" : "Models//Ch_yurei_downright.model"
		}
	]
}