{
	"properties":
	[
		{
			"numLevel" : 9,
			"type" : 10,
			"score" : 250,
			"animated" : 1,
			"speed" : [0,0,0],
			"scale" : 1,			
			"relativeDistance" : [0,0,0],
			"lifes" : 1,
			"SliceDirection" : 0,
			"Tempo" : 0.65,
			"Cooldown" : 0.0,
			"baseModel" : "Models//Ch_kappa.model",
			"topSide" : "Models//Ch_kappa_up.model",
			"bottomSide" : "Models//Ch_kappa_down.model",
			"leftSide" : "Models//Ch_Kappa_left.model",
			"rightSide" : "Models//Ch_Kappa_right.model",
			"upRightSide" : "Models//Ch_kappa_upright.model",
			"upLeftSide" : "Models//Ch_Kappa_upleft.model",
			"downLeftSide" : "Models//Ch_Kappa_downleft.model",
			"downRightSide" : "Models//Ch_Kappa_downright.model"
		}
	]
}
