{
	"properties":
	[
		{
			"numLevel" : 0,
			"type" : 10,
			"score" : 250,
			"animated" : 0,
			"speed" : [0,-380,300],
			"scale" : 2,			
			"relativeDistance" : [0,180,0],
			"lifes" : 1,
			"SliceDirection" : 0,
			"Tempo" : 1,
			"Cooldown" : 1,
			"baseModel" : "Models//Ch_kappa.model",
			"topSide" : "",
			"bottomSide" : "",
			"leftSide" : "",
			"rightSide" : "",
			"upRightSide" : "",
			"upLeftSide" : "",
			"downLeftSide" : "",
			"downRightSide" : ""
		}
	]
}
