{
	"properties":
	[
		{
			"numLevel" : 5,
			"type" : 4,
			"score" : 100,
			"animated" : 1,
			"speed" : [0,-380,0],
			"scale" : 1,			
			"relativeDistance" : [0,180,0],
			"lifes" : 1,
			"SliceDirection" : 0,
			"Tempo" : 0.5,
			"Cooldown" : 2,
			"baseModel" : "Models//Ch_ninja.model",
			"topSide" : "Models//Ch_ninja_up.model",
			"bottomSide" : "Models//Ch_ninja_down.model",
			"leftSide" : "Models//Ch_ninja_left.model",
			"rightSide" : "Models//Ch_ninja_right.model",
			"upRightSide" : "Models//Ch_ninja_upright.model",
			"upLeftSide" : "Models//Ch_ninja_upleft.model",
			"downLeftSide" : "Models//Ch_ninja_downleft.model",
			"downRightSide" : "Models//Ch_ninja_downright.model"
		}
	]
}
