{
	"properties":
	[
		{
			"numLevel" : 10,
			"type" : 0,
			"score" : 50,
			"animated" : 1,
			"speed" : [0,-100,0],
			"scale" : 1,			
			"relativeDistance" : [0,0,0],
			"lifes" : 1,
			"SliceDirection" : 0,		
			"baseModel" : "Models//ch_kitsune.model",
			"topSide" : "Models//Ch_kitsune_up.model",
			"bottomSide" : "Models//Ch_kitsune_down.model",
			"leftSide" : "Models//Ch_kitsune_left.model",
			"rightSide" : "Models//Ch_kitsune_right.model",
			"upRightSide" : "Models//Ch_kitsune_upright.model",
			"upLeftSide" : "Models//Ch_kitsune_upleft.model",
			"downLeftSide" : "Models//Ch_kitsune_downleft.model",
			"downRightSide" : "Models//Ch_kitsune_downright.model"
		}
	]
}