{
	"properties":
	[
		{
			"numLevel" : 6,
			"type" : 41,
			"score" : 50,
			"animated" : 1,
			"speed" : [0,0,0],
			"Tempo" : 3.2,
			"scale" : 1,			
			"relativeDistance" : [0,0,0],
			"lifes" : 1,
			"SliceDirection" : 0,		
			"baseModel" : "Models//ch_shuriken.model",
			"topSide" : "",
			"bottomSide" : "",
			"leftSide" : "",
			"rightSide" : "",
			"upRightSide" : "",
			"upLeftSide" : "",
			"downLeftSide" : "",
			"downRightSide" : ""
		}
	]
}