{
	"properties":
	[
		{
			"numLevel" : 16,
			"type" : 11,
			"score" : 1,
			"animated" : 1,
			"speed" : [0,-1000,0],
			"scale" : 0.25,			
			"relativeDistance" : [0,0,0],
			"lifes" : 1,
			"SliceDirection" : 0,		
			"baseModel" : "Models//Ch_Minion_Spider.model",
			"topSide" : "",
			"bottomSide" : "",
			"leftSide" : "",
			"rightSide" : "",
			"upRightSide" : "",
			"upLeftSide" : "",
			"downLeftSide" : "",
			"downRightSide" : ""
		}
	]
}