{
	"properties":
	[
		{
			"numLevel" : 0,
			"type" : 7,
			"score" : 200,
			"animated" : 0,
			"speed" : [0,-150,0],
			"scale" : 1,			
			"relativeDistance" : [0,0,0],
			"lifes" : 2,
			"SliceDirection" : 9,
			"Tempo" : 10,			
			"baseModel" : "Models//Ch_Tengu.model",
			"topSide" : "Models//Ch_Tengu_Up.model",
			"bottomSide" : "Models//Ch_Tengu_Down.model",
			"leftSide" : "Models//Ch_Tengu_Left.model",
			"rightSide" : "Models//Ch_Tengu_Right.model",
			"upRightSide" : "",
			"upLeftSide" : "",
			"downLeftSide" : "",
			"downRightSide" : ""
		}
	]
}